{
  "bindings": [{
    "authLevel": "function",
    "direction": "in",
    "name": "req",
    "type": "httpTrigger"
  }, {
    "direction": "out",
    "name": "res",
    "type": "http"
  }],
  "disabled": false
}